"InvoiceID","PayerAccountId","LinkedAccountId","RecordType","RecordID","BillingPeriodStartDate","BillingPeriodEndDate","InvoiceDate","PayerAccountName","LinkedAccountName","TaxationAddress","PayerPONumber","ProductCode","ProductName","SellerOfRecord","UsageType","Operation","RateId","ItemDescription","UsageStartDate","UsageEndDate","UsageQuantity","BlendedRate","CurrencyCode","CostBeforeTax","Credits","TaxAmount","TaxType","TotalCost"
"Estimated_MP","118558798780","","PayerLineItem","3000000000296796888","2015/05/01 00:00:00","2015/05/31 23:59:59","2015/06/01 01:37:21","Basheer Mohammad","","TechChefs Software Pvt. Ltd., #62  4th Floor  The High Street , 11th Main Road  Jayanagar 4th Block Bangalore, Karnataka, 560011, IN",,"AmazonEC2","Amazon Elastic Compute Cloud","Amazon Internet Services Pvt Ltd","CW:Requests",,"5567046","$0.00 per request - first 1,000,000 requests","2015/05/21 10:13:21","2015/05/31 23:59:59","13.0",,"USD","0.00","0.0","0.000000","None","0.000000"
"Estimated_MP","118558798780","","PayerLineItem","3000000000296796889","2015/05/01 00:00:00","2015/05/31 23:59:59","2015/06/01 01:37:21","Basheer Mohammad","","TechChefs Software Pvt. Ltd., #62  4th Floor  The High Street , 11th Main Road  Jayanagar 4th Block Bangalore, Karnataka, 560011, IN",,"AmazonEC2","Amazon Elastic Compute Cloud","Amazon Internet Services Pvt Ltd","USW2-EBS:VolumeUsage",,"5570149","$0.00 per GB-month of Magnetic provisioned storage under monthly free tier","2015/05/21 10:13:21","2015/05/31 23:59:59","2.66666711",,"USD","0.00","0.0","0.000000","None","0.000000"
"Estimated_MP","118558798780","","PayerLineItem","3000000000298532460","2015/05/01 00:00:00","2015/05/31 23:59:59","2015/06/01 01:37:21","Basheer Mohammad","","TechChefs Software Pvt. Ltd., #62  4th Floor  The High Street , 11th Main Road  Jayanagar 4th Block Bangalore, Karnataka, 560011, IN",,"AWSDataTransfer","AWS Data Transfer","Amazon Internet Services Pvt Ltd","USW2-APS2-AWS-Out-Bytes",,"4670398","$0.000 per GB - data transfer out under the monthly global free tier","2015/05/21 10:11:45","2015/05/31 23:59:59","0.00197294",,"USD","0.00","0.0","0.000000","None","0.000000"
"Estimated_MP","118558798780","","PayerLineItem","3000000000298532461","2015/05/01 00:00:00","2015/05/31 23:59:59","2015/06/01 01:37:21","Basheer Mohammad","","TechChefs Software Pvt. Ltd., #62  4th Floor  The High Street , 11th Main Road  Jayanagar 4th Block Bangalore, Karnataka, 560011, IN",,"AWSDataTransfer","AWS Data Transfer","Amazon Internet Services Pvt Ltd","USW2-DataTransfer-Out-Bytes",,"4670384","$0.000 per GB - data transfer out under the monthly global free tier","2015/05/21 10:11:45","2015/05/31 23:59:59","0.04874874",,"USD","0.00","0.0","0.000000","None","0.000000"
"Estimated_MP","118558798780","","PayerLineItem","3000000000298639918","2015/05/01 00:00:00","2015/05/31 23:59:59","2015/06/01 01:37:21","Basheer Mohammad","","TechChefs Software Pvt. Ltd., #62  4th Floor  The High Street , 11th Main Road  Jayanagar 4th Block Bangalore, Karnataka, 560011, IN",,"AmazonSNS","Amazon Simple Notification Service","Amazon Internet Services Pvt Ltd","Requests-Tier1",,"5261123","First 1,000,000 Amazon SNS API Requests per month are free","2015/05/21 10:13:41","2015/05/31 23:59:59","1.0",,"USD","0.00","0.0","0.000000","None","0.000000"
"Estimated_MP","118558798780","","PayerLineItem","3000000000298532462","2015/05/01 00:00:00","2015/05/31 23:59:59","2015/06/01 01:37:21","Basheer Mohammad","","TechChefs Software Pvt. Ltd., #62  4th Floor  The High Street , 11th Main Road  Jayanagar 4th Block Bangalore, Karnataka, 560011, IN",,"AWSDataTransfer","AWS Data Transfer","Amazon Internet Services Pvt Ltd","USW2-SAE1-AWS-Out-Bytes",,"4670395","$0.000 per GB - data transfer out under the monthly global free tier","2015/05/21 10:11:45","2015/05/31 23:59:59","0.00197286",,"USD","0.00","0.0","0.000000","None","0.000000"
"Estimated_MP","118558798780","","PayerLineItem","3000000000298532463","2015/05/01 00:00:00","2015/05/31 23:59:59","2015/06/01 01:37:21","Basheer Mohammad","","TechChefs Software Pvt. Ltd., #62  4th Floor  The High Street , 11th Main Road  Jayanagar 4th Block Bangalore, Karnataka, 560011, IN",,"AmazonS3","Amazon Simple Storage Service","Amazon Internet Services Pvt Ltd","USW2-Requests-Tier1",,"4669368","$0.005 per 1,000 PUT, COPY, POST, or LIST requests","2015/05/21 10:13:42","2015/05/31 23:59:59","1444.0",,"USD","0.01","0.0","0.000000","None","0.010000"
"Estimated_MP","118558798780","","PayerLineItem","3000000000298532464","2015/05/01 00:00:00","2015/05/31 23:59:59","2015/06/01 01:37:21","Basheer Mohammad","","TechChefs Software Pvt. Ltd., #62  4th Floor  The High Street , 11th Main Road  Jayanagar 4th Block Bangalore, Karnataka, 560011, IN",,"AWSDataTransfer","AWS Data Transfer","Amazon Internet Services Pvt Ltd","DataTransfer-In-Bytes",,"4670588","$0.000 per GB - data transfer in per month","2015/05/21 10:11:45","2015/05/31 23:59:59","5.7E-7",,"USD","0.00","0.0","0.000000","None","0.000000"
"Estimated_MP","118558798780","","PayerLineItem","3000000000298532465","2015/05/01 00:00:00","2015/05/31 23:59:59","2015/06/01 01:37:21","Basheer Mohammad","","TechChefs Software Pvt. Ltd., #62  4th Floor  The High Street , 11th Main Road  Jayanagar 4th Block Bangalore, Karnataka, 560011, IN",,"AWSDataTransfer","AWS Data Transfer","Amazon Internet Services Pvt Ltd","USE1-USW2-AWS-In-Bytes",,"4670567","$0.00 per GB - US East (Northern Virginia) data transfer from US West (Oregon)","2015/05/21 10:11:45","2015/05/31 23:59:59","1.4E-7",,"USD","0.00","0.0","0.000000","None","0.000000"
"Estimated_MP","118558798780","","PayerLineItem","3000000000296796890","2015/05/01 00:00:00","2015/05/31 23:59:59","2015/06/01 01:37:21","Basheer Mohammad","","TechChefs Software Pvt. Ltd., #62  4th Floor  The High Street , 11th Main Road  Jayanagar 4th Block Bangalore, Karnataka, 560011, IN",,"AmazonEC2","Amazon Elastic Compute Cloud","Amazon Internet Services Pvt Ltd","USW2-BoxUsage:t2.micro","RunInstances","5566256","$0.00 per Linux t2.micro instance-hour (or partial hour) under monthly free tier","2015/05/21 10:13:21","2015/05/31 23:59:59","2.0",,"USD","0.00","0.0","0.000000","None","0.000000"
"Estimated_MP","118558798780","","PayerLineItem","3000000000298532466","2015/05/01 00:00:00","2015/05/31 23:59:59","2015/06/01 01:37:21","Basheer Mohammad","","TechChefs Software Pvt. Ltd., #62  4th Floor  The High Street , 11th Main Road  Jayanagar 4th Block Bangalore, Karnataka, 560011, IN",,"awskms","AWS Key Management Service","Amazon Internet Services Pvt Ltd","us-west-2-KMS-Requests",,"4670840","$0.00 per request - Monthly Global Free Tier for KMS requests","2015/05/21 10:11:50","2015/05/31 23:59:59","7.0",,"USD","0.00","0.0","0.000000","None","0.000000"
"Estimated_MP","118558798780","","PayerLineItem","3000000000298639919","2015/05/01 00:00:00","2015/05/31 23:59:59","2015/06/01 01:37:21","Basheer Mohammad","","TechChefs Software Pvt. Ltd., #62  4th Floor  The High Street , 11th Main Road  Jayanagar 4th Block Bangalore, Karnataka, 560011, IN",,"AmazonCognitoSync","Amazon Cognito","Amazon Internet Services Pvt Ltd","CognitoSyncOperation","CognitoSync","4639546","Cognito Sync operation free tier","2015/05/21 10:11:51","2015/05/31 23:59:59","2.0",,"USD","0.00","0.0","0.000000","None","0.000000"
"Estimated_MP","118558798780","","PayerLineItem","3000000000296796891","2015/05/01 00:00:00","2015/05/31 23:59:59","2015/06/01 01:37:21","Basheer Mohammad","","TechChefs Software Pvt. Ltd., #62  4th Floor  The High Street , 11th Main Road  Jayanagar 4th Block Bangalore, Karnataka, 560011, IN",,"AmazonEC2","Amazon Elastic Compute Cloud","Amazon Internet Services Pvt Ltd","USW2-EBS:VolumeUsage.gp2",,"5568829","$0.00 per GB-month of General Purpose (SSD) provisioned storage under monthly free tier","2015/05/21 10:13:21","2015/05/31 23:59:59","0.02150538",,"USD","0.00","0.0","0.000000","None","0.000000"
"Estimated_MP","118558798780","","PayerLineItem","3000000000298532469","2015/05/01 00:00:00","2015/05/31 23:59:59","2015/06/01 01:37:21","Basheer Mohammad","","TechChefs Software Pvt. Ltd., #62  4th Floor  The High Street , 11th Main Road  Jayanagar 4th Block Bangalore, Karnataka, 560011, IN",,"AWSDataTransfer","AWS Data Transfer","Amazon Internet Services Pvt Ltd","USW2-APN1-AWS-In-Bytes",,"4670280","$0.00 per GB - US West (Oregon) data transfer from Asia Pacific (Tokyo)","2015/05/21 10:11:45","2015/05/31 23:59:59","0.0018392",,"USD","0.00","0.0","0.000000","None","0.000000"
"Estimated_MP","118558798780","","PayerLineItem","3000000000298532470","2015/05/01 00:00:00","2015/05/31 23:59:59","2015/06/01 01:37:21","Basheer Mohammad","","TechChefs Software Pvt. Ltd., #62  4th Floor  The High Street , 11th Main Road  Jayanagar 4th Block Bangalore, Karnataka, 560011, IN",,"AWSDataTransfer","AWS Data Transfer","Amazon Internet Services Pvt Ltd","USW2-USE1-AWS-In-Bytes",,"4670272","$0.00 per GB - US West (Oregon) data transfer from US East (Northern Virginia)","2015/05/21 10:11:45","2015/05/31 23:59:59","0.00434673",,"USD","0.00","0.0","0.000000","None","0.000000"
"Estimated_MP","118558798780","","PayerLineItem","3000000000298532471","2015/05/01 00:00:00","2015/05/31 23:59:59","2015/06/01 01:37:21","Basheer Mohammad","","TechChefs Software Pvt. Ltd., #62  4th Floor  The High Street , 11th Main Road  Jayanagar 4th Block Bangalore, Karnataka, 560011, IN",,"AWSDataTransfer","AWS Data Transfer","Amazon Internet Services Pvt Ltd","USW2-EUC1-AWS-Out-Bytes",,"4670589","$0.000 per GB - data transfer out under the monthly global free tier","2015/05/21 10:11:45","2015/05/31 23:59:59","4.0E-8",,"USD","0.00","0.0","0.000000","None","0.000000"
"Estimated_MP","118558798780","","PayerLineItem","3000000000298532472","2015/05/01 00:00:00","2015/05/31 23:59:59","2015/06/01 01:37:21","Basheer Mohammad","","TechChefs Software Pvt. Ltd., #62  4th Floor  The High Street , 11th Main Road  Jayanagar 4th Block Bangalore, Karnataka, 560011, IN",,"AmazonS3","Amazon Simple Storage Service","Amazon Internet Services Pvt Ltd","USW2-TimedStorage-ByteHrs",,"4669774","$0.000 per GB - storage under the monthly global free tier","2015/05/21 10:13:42","2015/05/31 23:59:59","0.00167838",,"USD","0.00","0.0","0.000000","None","0.000000"
"Estimated_MP","118558798780","","PayerLineItem","3000000000298532473","2015/05/01 00:00:00","2015/05/31 23:59:59","2015/06/01 01:37:21","Basheer Mohammad","","TechChefs Software Pvt. Ltd., #62  4th Floor  The High Street , 11th Main Road  Jayanagar 4th Block Bangalore, Karnataka, 560011, IN",,"AmazonS3","Amazon Simple Storage Service","Amazon Internet Services Pvt Ltd","Requests-Tier1",,"4669757","$0.00 per request - PUT, COPY, POST, or LIST requests under the monthly global free tier","2015/05/21 10:13:42","2015/05/31 23:59:59","343.0",,"USD","0.00","0.0","0.000000","None","0.000000"
"Estimated_MP","118558798780","","PayerLineItem","3000000000296796892","2015/05/01 00:00:00","2015/05/31 23:59:59","2015/06/01 01:37:21","Basheer Mohammad","","TechChefs Software Pvt. Ltd., #62  4th Floor  The High Street , 11th Main Road  Jayanagar 4th Block Bangalore, Karnataka, 560011, IN",,"AmazonEC2","Amazon Elastic Compute Cloud","Amazon Internet Services Pvt Ltd","USW2-DataProcessing-Bytes","LoadBalancing","5570944","$0.00 per GB Data Processed by the LoadBalancer under monthly free tier","2015/05/21 10:13:21","2015/05/31 23:59:59","0.00041166",,"USD","0.00","0.0","0.000000","None","0.000000"
"Estimated_MP","118558798780","","PayerLineItem","3000000000298532474","2015/05/01 00:00:00","2015/05/31 23:59:59","2015/06/01 01:37:21","Basheer Mohammad","","TechChefs Software Pvt. Ltd., #62  4th Floor  The High Street , 11th Main Road  Jayanagar 4th Block Bangalore, Karnataka, 560011, IN",,"AWSDataTransfer","AWS Data Transfer","Amazon Internet Services Pvt Ltd","USW2-APN1-AWS-Out-Bytes",,"4670400","$0.000 per GB - data transfer out under the monthly global free tier","2015/05/21 10:11:45","2015/05/31 23:59:59","0.00198457",,"USD","0.00","0.0","0.000000","None","0.000000"
"Estimated_MP","118558798780","","PayerLineItem","3000000000298532475","2015/05/01 00:00:00","2015/05/31 23:59:59","2015/06/01 01:37:21","Basheer Mohammad","","TechChefs Software Pvt. Ltd., #62  4th Floor  The High Street , 11th Main Road  Jayanagar 4th Block Bangalore, Karnataka, 560011, IN",,"AWSDataTransfer","AWS Data Transfer","Amazon Internet Services Pvt Ltd","USW2-SAE1-AWS-In-Bytes",,"4670266","$0.00 per GB - US West (Oregon) data transfer from South America (Sao Paulo)","2015/05/21 10:11:45","2015/05/31 23:59:59","0.00183609",,"USD","0.00","0.0","0.000000","None","0.000000"
"Estimated_MP","118558798780","","PayerLineItem","3000000000296796893","2015/05/01 00:00:00","2015/05/31 23:59:59","2015/06/01 01:37:21","Basheer Mohammad","","TechChefs Software Pvt. Ltd., #62  4th Floor  The High Street , 11th Main Road  Jayanagar 4th Block Bangalore, Karnataka, 560011, IN",,"AmazonEC2","Amazon Elastic Compute Cloud","Amazon Internet Services Pvt Ltd","USW2-LoadBalancerUsage","LoadBalancing","5567728","$0.00 per LoadBalancer-hour (or partial hour) under monthly free tier","2015/05/21 10:13:21","2015/05/31 23:59:59","251.0",,"USD","0.00","0.0","0.000000","None","0.000000"
"Estimated_MP","118558798780","","PayerLineItem","3000000000298532476","2015/05/01 00:00:00","2015/05/31 23:59:59","2015/06/01 01:37:21","Basheer Mohammad","","TechChefs Software Pvt. Ltd., #62  4th Floor  The High Street , 11th Main Road  Jayanagar 4th Block Bangalore, Karnataka, 560011, IN",,"AWSQueueService","Amazon Simple Queue Service","Amazon Internet Services Pvt Ltd","USW2-Requests-Tier1",,"4669334","First 1,000,000 Amazon SQS Requests per month are free","2015/05/21 10:14:03","2015/05/31 23:59:59","21.0",,"USD","0.00","0.0","0.000000","None","0.000000"
"Estimated_MP","118558798780","","PayerLineItem","3000000000298532477","2015/05/01 00:00:00","2015/05/31 23:59:59","2015/06/01 01:37:21","Basheer Mohammad","","TechChefs Software Pvt. Ltd., #62  4th Floor  The High Street , 11th Main Road  Jayanagar 4th Block Bangalore, Karnataka, 560011, IN",,"AWSDataTransfer","AWS Data Transfer","Amazon Internet Services Pvt Ltd","USW2-DataTransfer-In-Bytes",,"4670632","$0.000 per GB - data transfer in per month","2015/05/21 10:11:45","2015/05/31 23:59:59","0.13910182",,"USD","0.00","0.0","0.000000","None","0.000000"
"Estimated_MP","118558798780","","PayerLineItem","3000000000298532479","2015/05/01 00:00:00","2015/05/31 23:59:59","2015/06/01 01:37:21","Basheer Mohammad","","TechChefs Software Pvt. Ltd., #62  4th Floor  The High Street , 11th Main Road  Jayanagar 4th Block Bangalore, Karnataka, 560011, IN",,"AWSDataTransfer","AWS Data Transfer","Amazon Internet Services Pvt Ltd","USW2-APS1-AWS-Out-Bytes",,"4670399","$0.000 per GB - data transfer out under the monthly global free tier","2015/05/21 10:11:45","2015/05/31 23:59:59","0.0019751",,"USD","0.00","0.0","0.000000","None","0.000000"
"Estimated_MP","118558798780","","PayerLineItem","3000000000298532480","2015/05/01 00:00:00","2015/05/31 23:59:59","2015/06/01 01:37:21","Basheer Mohammad","","TechChefs Software Pvt. Ltd., #62  4th Floor  The High Street , 11th Main Road  Jayanagar 4th Block Bangalore, Karnataka, 560011, IN",,"AWSDataTransfer","AWS Data Transfer","Amazon Internet Services Pvt Ltd","USW2-EUC1-AWS-In-Bytes",,"4670287","$0.00 per GB - US West (Oregon) data transfer from EU (Germany)","2015/05/21 10:11:45","2015/05/31 23:59:59","7.0E-8",,"USD","0.00","0.0","0.000000","None","0.000000"
"Estimated_MP","118558798780","","PayerLineItem","3000000000298532481","2015/05/01 00:00:00","2015/05/31 23:59:59","2015/06/01 01:37:21","Basheer Mohammad","","TechChefs Software Pvt. Ltd., #62  4th Floor  The High Street , 11th Main Road  Jayanagar 4th Block Bangalore, Karnataka, 560011, IN",,"AWSDataTransfer","AWS Data Transfer","Amazon Internet Services Pvt Ltd","USW2-APS2-AWS-In-Bytes",,"4670276","$0.00 per GB - US West (Oregon) data transfer from Asia Pacific (Sydney)","2015/05/21 10:11:45","2015/05/31 23:59:59","0.00182863",,"USD","0.00","0.0","0.000000","None","0.000000"
"Estimated_MP","118558798780","","PayerLineItem","3000000000296796894","2015/05/01 00:00:00","2015/05/31 23:59:59","2015/06/01 01:37:21","Basheer Mohammad","","TechChefs Software Pvt. Ltd., #62  4th Floor  The High Street , 11th Main Road  Jayanagar 4th Block Bangalore, Karnataka, 560011, IN",,"AmazonEC2","Amazon Elastic Compute Cloud","Amazon Internet Services Pvt Ltd","USW2-CW:Requests",,"5568251","$0.00 per request - first 1,000,000 requests","2015/05/21 10:13:21","2015/05/31 23:59:59","1.0",,"USD","0.00","0.0","0.000000","None","0.000000"
"Estimated_MP","118558798780","","PayerLineItem","3000000000298532482","2015/05/01 00:00:00","2015/05/31 23:59:59","2015/06/01 01:37:21","Basheer Mohammad","","TechChefs Software Pvt. Ltd., #62  4th Floor  The High Street , 11th Main Road  Jayanagar 4th Block Bangalore, Karnataka, 560011, IN",,"AmazonSNS","Amazon Simple Notification Service","Amazon Internet Services Pvt Ltd","USW2-Requests-Tier1",,"5261154","First 1,000,000 Amazon SNS API Requests per month are free","2015/05/21 10:13:41","2015/05/31 23:59:59","43.0",,"USD","0.00","0.0","0.000000","None","0.000000"
"Estimated_MP","118558798780","","PayerLineItem","3000000000298532483","2015/05/01 00:00:00","2015/05/31 23:59:59","2015/06/01 01:37:21","Basheer Mohammad","","TechChefs Software Pvt. Ltd., #62  4th Floor  The High Street , 11th Main Road  Jayanagar 4th Block Bangalore, Karnataka, 560011, IN",,"AmazonS3","Amazon Simple Storage Service","Amazon Internet Services Pvt Ltd","Requests-Tier2",,"4669500","$0.00 per request - GET and all other requests under the monthly global free tier","2015/05/21 10:13:42","2015/05/31 23:59:59","12.0",,"USD","0.00","0.0","0.000000","None","0.000000"
"Estimated_MP","118558798780","","PayerLineItem","3000000000298532485","2015/05/01 00:00:00","2015/05/31 23:59:59","2015/06/01 01:37:21","Basheer Mohammad","","TechChefs Software Pvt. Ltd., #62  4th Floor  The High Street , 11th Main Road  Jayanagar 4th Block Bangalore, Karnataka, 560011, IN",,"AWSDataTransfer","AWS Data Transfer","Amazon Internet Services Pvt Ltd","USW2-EU-AWS-Out-Bytes",,"4670396","$0.000 per GB - data transfer out under the monthly global free tier","2015/05/21 10:11:45","2015/05/31 23:59:59","0.00197818",,"USD","0.00","0.0","0.000000","None","0.000000"
"Estimated_MP","118558798780","","PayerLineItem","3000000000298532486","2015/05/01 00:00:00","2015/05/31 23:59:59","2015/06/01 01:37:21","Basheer Mohammad","","TechChefs Software Pvt. Ltd., #62  4th Floor  The High Street , 11th Main Road  Jayanagar 4th Block Bangalore, Karnataka, 560011, IN",,"AmazonS3","Amazon Simple Storage Service","Amazon Internet Services Pvt Ltd","USW2-Requests-Tier2",,"4669772","$0.00 per request - GET and all other requests under the monthly global free tier","2015/05/21 10:13:42","2015/05/31 23:59:59","3326.0",,"USD","0.00","0.0","0.000000","None","0.000000"
"Estimated_MP","118558798780","","PayerLineItem","3000000000298532487","2015/05/01 00:00:00","2015/05/31 23:59:59","2015/06/01 01:37:21","Basheer Mohammad","","TechChefs Software Pvt. Ltd., #62  4th Floor  The High Street , 11th Main Road  Jayanagar 4th Block Bangalore, Karnataka, 560011, IN",,"AWSDataTransfer","AWS Data Transfer","Amazon Internet Services Pvt Ltd","USW2-DataTransfer-Regional-Bytes",,"4670383","$0.000 per GB - regional data transfer under the monthly global free tier","2015/05/21 10:11:45","2015/05/31 23:59:59","0.00388091",,"USD","0.00","0.0","0.000000","None","0.000000"
"Estimated_MP","118558798780","","PayerLineItem","3000000000296796895","2015/05/01 00:00:00","2015/05/31 23:59:59","2015/06/01 01:37:21","Basheer Mohammad","","TechChefs Software Pvt. Ltd., #62  4th Floor  The High Street , 11th Main Road  Jayanagar 4th Block Bangalore, Karnataka, 560011, IN",,"AmazonEC2","Amazon Elastic Compute Cloud","Amazon Internet Services Pvt Ltd","USW2-CW:AlarmMonitorUsage",,"5567492","$0.00 per alarm-month - first 10 alarms","2015/05/21 10:13:21","2015/05/31 23:59:59","0.67450666",,"USD","0.00","0.0","0.000000","None","0.000000"
"Estimated_MP","118558798780","","PayerLineItem","3000000000298532489","2015/05/01 00:00:00","2015/05/31 23:59:59","2015/06/01 01:37:21","Basheer Mohammad","","TechChefs Software Pvt. Ltd., #62  4th Floor  The High Street , 11th Main Road  Jayanagar 4th Block Bangalore, Karnataka, 560011, IN",,"AWSDataTransfer","AWS Data Transfer","Amazon Internet Services Pvt Ltd","USW2-USW1-AWS-Out-Bytes",,"4670590","$0.000 per GB - data transfer out under the monthly global free tier","2015/05/21 10:11:45","2015/05/31 23:59:59","0.00199513",,"USD","0.00","0.0","0.000000","None","0.000000"
"Estimated_MP","118558798780","","PayerLineItem","3000000000298532490","2015/05/01 00:00:00","2015/05/31 23:59:59","2015/06/01 01:37:21","Basheer Mohammad","","TechChefs Software Pvt. Ltd., #62  4th Floor  The High Street , 11th Main Road  Jayanagar 4th Block Bangalore, Karnataka, 560011, IN",,"AWSDataTransfer","AWS Data Transfer","Amazon Internet Services Pvt Ltd","USW2-USE1-AWS-Out-Bytes",,"4670591","$0.000 per GB - data transfer out under the monthly global free tier","2015/05/21 10:11:45","2015/05/31 23:59:59","0.00219338",,"USD","0.00","0.0","0.000000","None","0.000000"
"Estimated_MP","118558798780","","PayerLineItem","3000000000298532491","2015/05/01 00:00:00","2015/05/31 23:59:59","2015/06/01 01:37:21","Basheer Mohammad","","TechChefs Software Pvt. Ltd., #62  4th Floor  The High Street , 11th Main Road  Jayanagar 4th Block Bangalore, Karnataka, 560011, IN",,"AmazonS3","Amazon Simple Storage Service","Amazon Internet Services Pvt Ltd","USW2-Requests-Tier1",,"4669759","$0.00 per request - PUT, COPY, POST, or LIST requests under the monthly global free tier","2015/05/21 10:13:42","2015/05/31 23:59:59","1657.0",,"USD","0.00","0.0","0.000000","None","0.000000"
"Estimated_MP","118558798780","","PayerLineItem","3000000000296796896","2015/05/01 00:00:00","2015/05/31 23:59:59","2015/06/01 01:37:21","Basheer Mohammad","","TechChefs Software Pvt. Ltd., #62  4th Floor  The High Street , 11th Main Road  Jayanagar 4th Block Bangalore, Karnataka, 560011, IN",,"AmazonEC2","Amazon Elastic Compute Cloud","Amazon Internet Services Pvt Ltd","USW2-BoxUsage:t1.micro","RunInstances","5562399","$0.00 per Linux t1.micro instance-hour (or partial hour) under monthly free tier","2015/05/21 10:13:21","2015/05/31 23:59:59","256.0",,"USD","0.00","0.0","0.000000","None","0.000000"
"Estimated_MP","118558798780","","PayerLineItem","3000000000298532494","2015/05/01 00:00:00","2015/05/31 23:59:59","2015/06/01 01:37:21","Basheer Mohammad","","TechChefs Software Pvt. Ltd., #62  4th Floor  The High Street , 11th Main Road  Jayanagar 4th Block Bangalore, Karnataka, 560011, IN",,"AWSDataTransfer","AWS Data Transfer","Amazon Internet Services Pvt Ltd","USE1-USW2-AWS-Out-Bytes",,"4670358","$0.000 per GB - data transfer out under the monthly global free tier","2015/05/21 10:11:45","2015/05/31 23:59:59","0.00012477",,"USD","0.00","0.0","0.000000","None","0.000000"
"Estimated_MP","118558798780","","PayerLineItem","3000000000298532495","2015/05/01 00:00:00","2015/05/31 23:59:59","2015/06/01 01:37:21","Basheer Mohammad","","TechChefs Software Pvt. Ltd., #62  4th Floor  The High Street , 11th Main Road  Jayanagar 4th Block Bangalore, Karnataka, 560011, IN",,"AmazonSNS","Amazon Simple Notification Service","Amazon Internet Services Pvt Ltd","USW2-DeliveryAttempts-SMTP",,"5261226","First 1,000 Amazon SNS Email/Email-JSON Notifications per month are free","2015/05/21 10:13:41","2015/05/31 23:59:59","20.0",,"USD","0.00","0.0","0.000000","None","0.000000"
"Estimated_MP","118558798780","","PayerLineItem","3000000000296796897","2015/05/01 00:00:00","2015/05/31 23:59:59","2015/06/01 01:37:21","Basheer Mohammad","","TechChefs Software Pvt. Ltd., #62  4th Floor  The High Street , 11th Main Road  Jayanagar 4th Block Bangalore, Karnataka, 560011, IN",,"AmazonEC2","Amazon Elastic Compute Cloud","Amazon Internet Services Pvt Ltd","USW2-EBS:VolumeIOUsage",,"5570945","$0.00 for the first 2 million I/O requests under monthly free tier","2015/05/21 10:13:21","2015/05/31 23:59:59","347222.0",,"USD","0.00","0.0","0.000000","None","0.000000"
"Estimated_MP","118558798780","","PayerLineItem","3000000000298532496","2015/05/01 00:00:00","2015/05/31 23:59:59","2015/06/01 01:37:21","Basheer Mohammad","","TechChefs Software Pvt. Ltd., #62  4th Floor  The High Street , 11th Main Road  Jayanagar 4th Block Bangalore, Karnataka, 560011, IN",,"AWSDataTransfer","AWS Data Transfer","Amazon Internet Services Pvt Ltd","USW2-USW1-AWS-In-Bytes",,"4670270","$0.00 per GB - US West (Oregon) data transfer from US West (Northern California)","2015/05/21 10:11:45","2015/05/31 23:59:59","0.00184996",,"USD","0.00","0.0","0.000000","None","0.000000"
"Estimated_MP","118558798780","","PayerLineItem","3000000000298532497","2015/05/01 00:00:00","2015/05/31 23:59:59","2015/06/01 01:37:21","Basheer Mohammad","","TechChefs Software Pvt. Ltd., #62  4th Floor  The High Street , 11th Main Road  Jayanagar 4th Block Bangalore, Karnataka, 560011, IN",,"AWSDataTransfer","AWS Data Transfer","Amazon Internet Services Pvt Ltd","DataTransfer-Out-Bytes",,"4670371","$0.000 per GB - data transfer out under the monthly global free tier","2015/05/21 10:11:45","2015/05/31 23:59:59","0.00003722",,"USD","0.00","0.0","0.000000","None","0.000000"
"Estimated_MP","118558798780","","PayerLineItem","3000000000298532498","2015/05/01 00:00:00","2015/05/31 23:59:59","2015/06/01 01:37:21","Basheer Mohammad","","TechChefs Software Pvt. Ltd., #62  4th Floor  The High Street , 11th Main Road  Jayanagar 4th Block Bangalore, Karnataka, 560011, IN",,"AWSDataTransfer","AWS Data Transfer","Amazon Internet Services Pvt Ltd","USW2-APS1-AWS-In-Bytes",,"4670278","$0.00 per GB - US West (Oregon) data transfer from Asia Pacific (Singapore)","2015/05/21 10:11:45","2015/05/31 23:59:59","0.00183099",,"USD","0.00","0.0","0.000000","None","0.000000"
"Estimated_MP","118558798780","","PayerLineItem","3000000000298532499","2015/05/01 00:00:00","2015/05/31 23:59:59","2015/06/01 01:37:21","Basheer Mohammad","","TechChefs Software Pvt. Ltd., #62  4th Floor  The High Street , 11th Main Road  Jayanagar 4th Block Bangalore, Karnataka, 560011, IN",,"AWSDataTransfer","AWS Data Transfer","Amazon Internet Services Pvt Ltd","USW2-EU-AWS-In-Bytes",,"4670274","$0.00 per GB - US West (Oregon) data transfer from EU (Ireland)","2015/05/21 10:11:45","2015/05/31 23:59:59","0.00183411",,"USD","0.00","0.0","0.000000","None","0.000000"
"Estimated_MP","118558798780","118558798780","LinkedLineItem","3000000000293637536","2015/05/01 00:00:00","2015/05/31 23:59:59","2015/06/01 01:37:21","Basheer Mohammad","Basheer Mohammad","TechChefs Software Pvt. Ltd., #62  4th Floor  The High Street , 11th Main Road  Jayanagar 4th Block Bangalore, Karnataka, 560011, IN",,"AmazonS3","Amazon Simple Storage Service","Amazon Internet Services Pvt Ltd","USW2-Requests-Tier2",,"4669772","$0.00 per request - GET and all other requests under the monthly global free tier","2015/05/21 10:13:42","2015/05/31 23:59:59","3326.0","0.0","USD","0.000000","0.0","0.000000","None","0.000000"
"Estimated_MP","118558798780","118558798780","LinkedLineItem","3000000000293637537","2015/05/01 00:00:00","2015/05/31 23:59:59","2015/06/01 01:37:21","Basheer Mohammad","Basheer Mohammad","TechChefs Software Pvt. Ltd., #62  4th Floor  The High Street , 11th Main Road  Jayanagar 4th Block Bangalore, Karnataka, 560011, IN",,"AmazonS3","Amazon Simple Storage Service","Amazon Internet Services Pvt Ltd","USW2-TimedStorage-ByteHrs",,"4669774","$0.000 per GB - storage under the monthly global free tier","2015/05/21 10:13:42","2015/05/31 23:59:59","0.00167838","0.0","USD","0.000000","0.0","0.000000","None","0.000000"
"Estimated_MP","118558798780","118558798780","LinkedLineItem","3000000000293637539","2015/05/01 00:00:00","2015/05/31 23:59:59","2015/06/01 01:37:21","Basheer Mohammad","Basheer Mohammad","TechChefs Software Pvt. Ltd., #62  4th Floor  The High Street , 11th Main Road  Jayanagar 4th Block Bangalore, Karnataka, 560011, IN",,"AWSDataTransfer","AWS Data Transfer","Amazon Internet Services Pvt Ltd","USE1-USW2-AWS-Out-Bytes",,"4670358","$0.000 per GB - data transfer out under the monthly global free tier","2015/05/21 10:11:45","2015/05/31 23:59:59","0.00012477","0.0","USD","0.000000","0.0","0.000000","None","0.000000"
"Estimated_MP","118558798780","118558798780","LinkedLineItem","3000000000293637540","2015/05/01 00:00:00","2015/05/31 23:59:59","2015/06/01 01:37:21","Basheer Mohammad","Basheer Mohammad","TechChefs Software Pvt. Ltd., #62  4th Floor  The High Street , 11th Main Road  Jayanagar 4th Block Bangalore, Karnataka, 560011, IN",,"AmazonSNS","Amazon Simple Notification Service","Amazon Internet Services Pvt Ltd","USW2-DeliveryAttempts-SMTP",,"5261226","First 1,000 Amazon SNS Email/Email-JSON Notifications per month are free","2015/05/21 10:13:41","2015/05/31 23:59:59","20.0","0.0","USD","0.000000","0.0","0.000000","None","0.000000"
"Estimated_MP","118558798780","118558798780","LinkedLineItem","3000000000293637541","2015/05/01 00:00:00","2015/05/31 23:59:59","2015/06/01 01:37:21","Basheer Mohammad","Basheer Mohammad","TechChefs Software Pvt. Ltd., #62  4th Floor  The High Street , 11th Main Road  Jayanagar 4th Block Bangalore, Karnataka, 560011, IN",,"AWSDataTransfer","AWS Data Transfer","Amazon Internet Services Pvt Ltd","USW2-USE1-AWS-In-Bytes",,"4670272","$0.00 per GB - US West (Oregon) data transfer from US East (Northern Virginia)","2015/05/21 10:11:45","2015/05/31 23:59:59","0.00434673","0.0","USD","0.000000","0.0","0.000000","None","0.000000"
"Estimated_MP","118558798780","118558798780","LinkedLineItem","3000000000293813878","2015/05/01 00:00:00","2015/05/31 23:59:59","2015/06/01 01:37:21","Basheer Mohammad","Basheer Mohammad","TechChefs Software Pvt. Ltd., #62  4th Floor  The High Street , 11th Main Road  Jayanagar 4th Block Bangalore, Karnataka, 560011, IN",,"AmazonEC2","Amazon Elastic Compute Cloud","Amazon Internet Services Pvt Ltd","USW2-EBS:VolumeUsage",,"5570149","$0.00 per GB-month of Magnetic provisioned storage under monthly free tier","2015/05/21 10:13:21","2015/05/31 23:59:59","2.66666711","0.0","USD","0.000000","0.0","0.000000","None","0.000000"
"Estimated_MP","118558798780","118558798780","LinkedLineItem","3000000000293813879","2015/05/01 00:00:00","2015/05/31 23:59:59","2015/06/01 01:37:21","Basheer Mohammad","Basheer Mohammad","TechChefs Software Pvt. Ltd., #62  4th Floor  The High Street , 11th Main Road  Jayanagar 4th Block Bangalore, Karnataka, 560011, IN",,"AmazonEC2","Amazon Elastic Compute Cloud","Amazon Internet Services Pvt Ltd","USW2-CW:AlarmMonitorUsage",,"5567492","$0.00 per alarm-month - first 10 alarms","2015/05/21 10:13:21","2015/05/31 23:59:59","0.67450666","0.0","USD","0.000000","0.0","0.000000","None","0.000000"
"Estimated_MP","118558798780","118558798780","LinkedLineItem","3000000000293813880","2015/05/01 00:00:00","2015/05/31 23:59:59","2015/06/01 01:37:21","Basheer Mohammad","Basheer Mohammad","TechChefs Software Pvt. Ltd., #62  4th Floor  The High Street , 11th Main Road  Jayanagar 4th Block Bangalore, Karnataka, 560011, IN",,"AmazonEC2","Amazon Elastic Compute Cloud","Amazon Internet Services Pvt Ltd","USW2-LoadBalancerUsage","LoadBalancing","5567728","$0.00 per LoadBalancer-hour (or partial hour) under monthly free tier","2015/05/21 10:13:21","2015/05/31 23:59:59","251.0","0.0","USD","0.000000","0.0","0.000000","None","0.000000"
"Estimated_MP","118558798780","118558798780","LinkedLineItem","3000000000293637542","2015/05/01 00:00:00","2015/05/31 23:59:59","2015/06/01 01:37:21","Basheer Mohammad","Basheer Mohammad","TechChefs Software Pvt. Ltd., #62  4th Floor  The High Street , 11th Main Road  Jayanagar 4th Block Bangalore, Karnataka, 560011, IN",,"AmazonSNS","Amazon Simple Notification Service","Amazon Internet Services Pvt Ltd","USW2-Requests-Tier1",,"5261154","First 1,000,000 Amazon SNS API Requests per month are free","2015/05/21 10:13:41","2015/05/31 23:59:59","43.0","0.0","USD","0.000000","0.0","0.000000","None","0.000000"
"Estimated_MP","118558798780","118558798780","LinkedLineItem","3000000000293813881","2015/05/01 00:00:00","2015/05/31 23:59:59","2015/06/01 01:37:21","Basheer Mohammad","Basheer Mohammad","TechChefs Software Pvt. Ltd., #62  4th Floor  The High Street , 11th Main Road  Jayanagar 4th Block Bangalore, Karnataka, 560011, IN",,"AmazonEC2","Amazon Elastic Compute Cloud","Amazon Internet Services Pvt Ltd","USW2-EBS:VolumeIOUsage",,"5570945","$0.00 for the first 2 million I/O requests under monthly free tier","2015/05/21 10:13:21","2015/05/31 23:59:59","347222.0","0.0","USD","0.000000","0.0","0.000000","None","0.000000"
"Estimated_MP","118558798780","118558798780","LinkedLineItem","3000000000293637544","2015/05/01 00:00:00","2015/05/31 23:59:59","2015/06/01 01:37:21","Basheer Mohammad","Basheer Mohammad","TechChefs Software Pvt. Ltd., #62  4th Floor  The High Street , 11th Main Road  Jayanagar 4th Block Bangalore, Karnataka, 560011, IN",,"AWSDataTransfer","AWS Data Transfer","Amazon Internet Services Pvt Ltd","USW2-EUC1-AWS-In-Bytes",,"4670287","$0.00 per GB - US West (Oregon) data transfer from EU (Germany)","2015/05/21 10:11:45","2015/05/31 23:59:59","7.0E-8","0.0","USD","0.000000","0.0","0.000000","None","0.000000"
"Estimated_MP","118558798780","118558798780","LinkedLineItem","3000000000293637545","2015/05/01 00:00:00","2015/05/31 23:59:59","2015/06/01 01:37:21","Basheer Mohammad","Basheer Mohammad","TechChefs Software Pvt. Ltd., #62  4th Floor  The High Street , 11th Main Road  Jayanagar 4th Block Bangalore, Karnataka, 560011, IN",,"AWSDataTransfer","AWS Data Transfer","Amazon Internet Services Pvt Ltd","DataTransfer-Out-Bytes",,"4670371","$0.000 per GB - data transfer out under the monthly global free tier","2015/05/21 10:11:45","2015/05/31 23:59:59","0.00003722","0.0","USD","0.000000","0.0","0.000000","None","0.000000"
"Estimated_MP","118558798780","118558798780","LinkedLineItem","3000000000293637546","2015/05/01 00:00:00","2015/05/31 23:59:59","2015/06/01 01:37:21","Basheer Mohammad","Basheer Mohammad","TechChefs Software Pvt. Ltd., #62  4th Floor  The High Street , 11th Main Road  Jayanagar 4th Block Bangalore, Karnataka, 560011, IN",,"AWSDataTransfer","AWS Data Transfer","Amazon Internet Services Pvt Ltd","USW2-EU-AWS-Out-Bytes",,"4670396","$0.000 per GB - data transfer out under the monthly global free tier","2015/05/21 10:11:45","2015/05/31 23:59:59","0.00197818","0.0","USD","0.000000","0.0","0.000000","None","0.000000"
"Estimated_MP","118558798780","118558798780","LinkedLineItem","3000000000293637547","2015/05/01 00:00:00","2015/05/31 23:59:59","2015/06/01 01:37:21","Basheer Mohammad","Basheer Mohammad","TechChefs Software Pvt. Ltd., #62  4th Floor  The High Street , 11th Main Road  Jayanagar 4th Block Bangalore, Karnataka, 560011, IN",,"AWSDataTransfer","AWS Data Transfer","Amazon Internet Services Pvt Ltd","USW2-APS2-AWS-In-Bytes",,"4670276","$0.00 per GB - US West (Oregon) data transfer from Asia Pacific (Sydney)","2015/05/21 10:11:45","2015/05/31 23:59:59","0.00182863","0.0","USD","0.000000","0.0","0.000000","None","0.000000"
"Estimated_MP","118558798780","118558798780","LinkedLineItem","3000000000293637549","2015/05/01 00:00:00","2015/05/31 23:59:59","2015/06/01 01:37:21","Basheer Mohammad","Basheer Mohammad","TechChefs Software Pvt. Ltd., #62  4th Floor  The High Street , 11th Main Road  Jayanagar 4th Block Bangalore, Karnataka, 560011, IN",,"AWSDataTransfer","AWS Data Transfer","Amazon Internet Services Pvt Ltd","USW2-USW1-AWS-In-Bytes",,"4670270","$0.00 per GB - US West (Oregon) data transfer from US West (Northern California)","2015/05/21 10:11:45","2015/05/31 23:59:59","0.00184996","0.0","USD","0.000000","0.0","0.000000","None","0.000000"
"Estimated_MP","118558798780","118558798780","LinkedLineItem","3000000000293637550","2015/05/01 00:00:00","2015/05/31 23:59:59","2015/06/01 01:37:21","Basheer Mohammad","Basheer Mohammad","TechChefs Software Pvt. Ltd., #62  4th Floor  The High Street , 11th Main Road  Jayanagar 4th Block Bangalore, Karnataka, 560011, IN",,"AWSDataTransfer","AWS Data Transfer","Amazon Internet Services Pvt Ltd","USW2-USW1-AWS-Out-Bytes",,"4670590","$0.000 per GB - data transfer out under the monthly global free tier","2015/05/21 10:11:45","2015/05/31 23:59:59","0.00199513","0.0","USD","0.000000","0.0","0.000000","None","0.000000"
"Estimated_MP","118558798780","118558798780","LinkedLineItem","3000000000293813882","2015/05/01 00:00:00","2015/05/31 23:59:59","2015/06/01 01:37:21","Basheer Mohammad","Basheer Mohammad","TechChefs Software Pvt. Ltd., #62  4th Floor  The High Street , 11th Main Road  Jayanagar 4th Block Bangalore, Karnataka, 560011, IN",,"AmazonEC2","Amazon Elastic Compute Cloud","Amazon Internet Services Pvt Ltd","USW2-EBS:VolumeUsage.gp2",,"5568829","$0.00 per GB-month of General Purpose (SSD) provisioned storage under monthly free tier","2015/05/21 10:13:21","2015/05/31 23:59:59","0.02150538","0.0","USD","0.000000","0.0","0.000000","None","0.000000"
"Estimated_MP","118558798780","118558798780","LinkedLineItem","3000000000293637551","2015/05/01 00:00:00","2015/05/31 23:59:59","2015/06/01 01:37:21","Basheer Mohammad","Basheer Mohammad","TechChefs Software Pvt. Ltd., #62  4th Floor  The High Street , 11th Main Road  Jayanagar 4th Block Bangalore, Karnataka, 560011, IN",,"AWSDataTransfer","AWS Data Transfer","Amazon Internet Services Pvt Ltd","USW2-APN1-AWS-Out-Bytes",,"4670400","$0.000 per GB - data transfer out under the monthly global free tier","2015/05/21 10:11:45","2015/05/31 23:59:59","0.00198457","0.0","USD","0.000000","0.0","0.000000","None","0.000000"
"Estimated_MP","118558798780","118558798780","LinkedLineItem","3000000000293637552","2015/05/01 00:00:00","2015/05/31 23:59:59","2015/06/01 01:37:21","Basheer Mohammad","Basheer Mohammad","TechChefs Software Pvt. Ltd., #62  4th Floor  The High Street , 11th Main Road  Jayanagar 4th Block Bangalore, Karnataka, 560011, IN",,"AWSDataTransfer","AWS Data Transfer","Amazon Internet Services Pvt Ltd","USW2-EU-AWS-In-Bytes",,"4670274","$0.00 per GB - US West (Oregon) data transfer from EU (Ireland)","2015/05/21 10:11:45","2015/05/31 23:59:59","0.00183411","0.0","USD","0.000000","0.0","0.000000","None","0.000000"
"Estimated_MP","118558798780","118558798780","LinkedLineItem","3000000000293813883","2015/05/01 00:00:00","2015/05/31 23:59:59","2015/06/01 01:37:21","Basheer Mohammad","Basheer Mohammad","TechChefs Software Pvt. Ltd., #62  4th Floor  The High Street , 11th Main Road  Jayanagar 4th Block Bangalore, Karnataka, 560011, IN",,"AmazonEC2","Amazon Elastic Compute Cloud","Amazon Internet Services Pvt Ltd","USW2-BoxUsage:t2.micro","RunInstances","5566256","$0.00 per Linux t2.micro instance-hour (or partial hour) under monthly free tier","2015/05/21 10:13:21","2015/05/31 23:59:59","2.0","0.0","USD","0.000000","0.0","0.000000","None","0.000000"
"Estimated_MP","118558798780","118558798780","LinkedLineItem","3000000000293637556","2015/05/01 00:00:00","2015/05/31 23:59:59","2015/06/01 01:37:21","Basheer Mohammad","Basheer Mohammad","TechChefs Software Pvt. Ltd., #62  4th Floor  The High Street , 11th Main Road  Jayanagar 4th Block Bangalore, Karnataka, 560011, IN",,"AWSDataTransfer","AWS Data Transfer","Amazon Internet Services Pvt Ltd","USW2-APS1-AWS-Out-Bytes",,"4670399","$0.000 per GB - data transfer out under the monthly global free tier","2015/05/21 10:11:45","2015/05/31 23:59:59","0.0019751","0.0","USD","0.000000","0.0","0.000000","None","0.000000"
"Estimated_MP","118558798780","118558798780","LinkedLineItem","3000000000293637557","2015/05/01 00:00:00","2015/05/31 23:59:59","2015/06/01 01:37:21","Basheer Mohammad","Basheer Mohammad","TechChefs Software Pvt. Ltd., #62  4th Floor  The High Street , 11th Main Road  Jayanagar 4th Block Bangalore, Karnataka, 560011, IN",,"AWSDataTransfer","AWS Data Transfer","Amazon Internet Services Pvt Ltd","USW2-APS2-AWS-Out-Bytes",,"4670398","$0.000 per GB - data transfer out under the monthly global free tier","2015/05/21 10:11:45","2015/05/31 23:59:59","0.00197294","0.0","USD","0.000000","0.0","0.000000","None","0.000000"
"Estimated_MP","118558798780","118558798780","LinkedLineItem","3000000000293813884","2015/05/01 00:00:00","2015/05/31 23:59:59","2015/06/01 01:37:21","Basheer Mohammad","Basheer Mohammad","TechChefs Software Pvt. Ltd., #62  4th Floor  The High Street , 11th Main Road  Jayanagar 4th Block Bangalore, Karnataka, 560011, IN",,"AmazonEC2","Amazon Elastic Compute Cloud","Amazon Internet Services Pvt Ltd","USW2-DataProcessing-Bytes","LoadBalancing","5570944","$0.00 per GB Data Processed by the LoadBalancer under monthly free tier","2015/05/21 10:13:21","2015/05/31 23:59:59","0.00041166","0.0","USD","0.000000","0.0","0.000000","None","0.000000"
"Estimated_MP","118558798780","118558798780","LinkedLineItem","3000000000293637560","2015/05/01 00:00:00","2015/05/31 23:59:59","2015/06/01 01:37:21","Basheer Mohammad","Basheer Mohammad","TechChefs Software Pvt. Ltd., #62  4th Floor  The High Street , 11th Main Road  Jayanagar 4th Block Bangalore, Karnataka, 560011, IN",,"AWSQueueService","Amazon Simple Queue Service","Amazon Internet Services Pvt Ltd","USW2-Requests-Tier1",,"4669334","First 1,000,000 Amazon SQS Requests per month are free","2015/05/21 10:14:03","2015/05/31 23:59:59","21.0","0.0","USD","0.000000","0.0","0.000000","None","0.000000"
"Estimated_MP","118558798780","118558798780","LinkedLineItem","3000000000293813885","2015/05/01 00:00:00","2015/05/31 23:59:59","2015/06/01 01:37:21","Basheer Mohammad","Basheer Mohammad","TechChefs Software Pvt. Ltd., #62  4th Floor  The High Street , 11th Main Road  Jayanagar 4th Block Bangalore, Karnataka, 560011, IN",,"AmazonEC2","Amazon Elastic Compute Cloud","Amazon Internet Services Pvt Ltd","USW2-CW:Requests",,"5568251","$0.00 per request - first 1,000,000 requests","2015/05/21 10:13:21","2015/05/31 23:59:59","1.0","0.0","USD","0.000000","0.0","0.000000","None","0.000000"
"Estimated_MP","118558798780","118558798780","LinkedLineItem","3000000000293637562","2015/05/01 00:00:00","2015/05/31 23:59:59","2015/06/01 01:37:21","Basheer Mohammad","Basheer Mohammad","TechChefs Software Pvt. Ltd., #62  4th Floor  The High Street , 11th Main Road  Jayanagar 4th Block Bangalore, Karnataka, 560011, IN",,"AWSDataTransfer","AWS Data Transfer","Amazon Internet Services Pvt Ltd","USW2-DataTransfer-Regional-Bytes",,"4670383","$0.000 per GB - regional data transfer under the monthly global free tier","2015/05/21 10:11:45","2015/05/31 23:59:59","0.00388091","0.0","USD","0.000000","0.0","0.000000","None","0.000000"
"Estimated_MP","118558798780","118558798780","LinkedLineItem","3000000000293637563","2015/05/01 00:00:00","2015/05/31 23:59:59","2015/06/01 01:37:21","Basheer Mohammad","Basheer Mohammad","TechChefs Software Pvt. Ltd., #62  4th Floor  The High Street , 11th Main Road  Jayanagar 4th Block Bangalore, Karnataka, 560011, IN",,"AWSDataTransfer","AWS Data Transfer","Amazon Internet Services Pvt Ltd","USW2-APN1-AWS-In-Bytes",,"4670280","$0.00 per GB - US West (Oregon) data transfer from Asia Pacific (Tokyo)","2015/05/21 10:11:45","2015/05/31 23:59:59","0.0018392","0.0","USD","0.000000","0.0","0.000000","None","0.000000"
"Estimated_MP","118558798780","118558798780","LinkedLineItem","3000000000293813886","2015/05/01 00:00:00","2015/05/31 23:59:59","2015/06/01 01:37:21","Basheer Mohammad","Basheer Mohammad","TechChefs Software Pvt. Ltd., #62  4th Floor  The High Street , 11th Main Road  Jayanagar 4th Block Bangalore, Karnataka, 560011, IN",,"AmazonEC2","Amazon Elastic Compute Cloud","Amazon Internet Services Pvt Ltd","USW2-BoxUsage:t1.micro","RunInstances","5562399","$0.00 per Linux t1.micro instance-hour (or partial hour) under monthly free tier","2015/05/21 10:13:21","2015/05/31 23:59:59","256.0","0.0","USD","0.000000","0.0","0.000000","None","0.000000"
"Estimated_MP","118558798780","118558798780","LinkedLineItem","3000000000293637564","2015/05/01 00:00:00","2015/05/31 23:59:59","2015/06/01 01:37:21","Basheer Mohammad","Basheer Mohammad","TechChefs Software Pvt. Ltd., #62  4th Floor  The High Street , 11th Main Road  Jayanagar 4th Block Bangalore, Karnataka, 560011, IN",,"AWSDataTransfer","AWS Data Transfer","Amazon Internet Services Pvt Ltd","USW2-DataTransfer-Out-Bytes",,"4670384","$0.000 per GB - data transfer out under the monthly global free tier","2015/05/21 10:11:45","2015/05/31 23:59:59","0.04874874","0.0","USD","0.000000","0.0","0.000000","None","0.000000"
"Estimated_MP","118558798780","118558798780","LinkedLineItem","3000000000293637565","2015/05/01 00:00:00","2015/05/31 23:59:59","2015/06/01 01:37:21","Basheer Mohammad","Basheer Mohammad","TechChefs Software Pvt. Ltd., #62  4th Floor  The High Street , 11th Main Road  Jayanagar 4th Block Bangalore, Karnataka, 560011, IN",,"AWSDataTransfer","AWS Data Transfer","Amazon Internet Services Pvt Ltd","USW2-DataTransfer-In-Bytes",,"4670632","$0.000 per GB - data transfer in per month","2015/05/21 10:11:45","2015/05/31 23:59:59","0.13910182","0.0","USD","0.000000","0.0","0.000000","None","0.000000"
"Estimated_MP","118558798780","118558798780","LinkedLineItem","3000000000293637566","2015/05/01 00:00:00","2015/05/31 23:59:59","2015/06/01 01:37:21","Basheer Mohammad","Basheer Mohammad","TechChefs Software Pvt. Ltd., #62  4th Floor  The High Street , 11th Main Road  Jayanagar 4th Block Bangalore, Karnataka, 560011, IN",,"AWSDataTransfer","AWS Data Transfer","Amazon Internet Services Pvt Ltd","USW2-USE1-AWS-Out-Bytes",,"4670591","$0.000 per GB - data transfer out under the monthly global free tier","2015/05/21 10:11:45","2015/05/31 23:59:59","0.00219338","0.0","USD","0.000000","0.0","0.000000","None","0.000000"
"Estimated_MP","118558798780","118558798780","LinkedLineItem","3000000000293637567","2015/05/01 00:00:00","2015/05/31 23:59:59","2015/06/01 01:37:21","Basheer Mohammad","Basheer Mohammad","TechChefs Software Pvt. Ltd., #62  4th Floor  The High Street , 11th Main Road  Jayanagar 4th Block Bangalore, Karnataka, 560011, IN",,"AWSDataTransfer","AWS Data Transfer","Amazon Internet Services Pvt Ltd","DataTransfer-In-Bytes",,"4670588","$0.000 per GB - data transfer in per month","2015/05/21 10:11:45","2015/05/31 23:59:59","5.7E-7","0.0","USD","0.000000","0.0","0.000000","None","0.000000"
"Estimated_MP","118558798780","118558798780","LinkedLineItem","3000000000293637568","2015/05/01 00:00:00","2015/05/31 23:59:59","2015/06/01 01:37:21","Basheer Mohammad","Basheer Mohammad","TechChefs Software Pvt. Ltd., #62  4th Floor  The High Street , 11th Main Road  Jayanagar 4th Block Bangalore, Karnataka, 560011, IN",,"awskms","AWS Key Management Service","Amazon Internet Services Pvt Ltd","us-west-2-KMS-Requests",,"4670840","$0.00 per request - Monthly Global Free Tier for KMS requests","2015/05/21 10:11:50","2015/05/31 23:59:59","7.0","0.0","USD","0.000000","0.0","0.000000","None","0.000000"
"Estimated_MP","118558798780","118558798780","LinkedLineItem","3000000000293813887","2015/05/01 00:00:00","2015/05/31 23:59:59","2015/06/01 01:37:21","Basheer Mohammad","Basheer Mohammad","TechChefs Software Pvt. Ltd., #62  4th Floor  The High Street , 11th Main Road  Jayanagar 4th Block Bangalore, Karnataka, 560011, IN",,"AmazonEC2","Amazon Elastic Compute Cloud","Amazon Internet Services Pvt Ltd","CW:Requests",,"5567046","$0.00 per request - first 1,000,000 requests","2015/05/21 10:13:21","2015/05/31 23:59:59","13.0","0.0","USD","0.000000","0.0","0.000000","None","0.000000"
"Estimated_MP","118558798780","118558798780","LinkedLineItem","3000000000293637569","2015/05/01 00:00:00","2015/05/31 23:59:59","2015/06/01 01:37:21","Basheer Mohammad","Basheer Mohammad","TechChefs Software Pvt. Ltd., #62  4th Floor  The High Street , 11th Main Road  Jayanagar 4th Block Bangalore, Karnataka, 560011, IN",,"AmazonS3","Amazon Simple Storage Service","Amazon Internet Services Pvt Ltd","Requests-Tier1",,"4669757","$0.00 per request - PUT, COPY, POST, or LIST requests under the monthly global free tier","2015/05/21 10:13:42","2015/05/31 23:59:59","343.0","0.0","USD","0.000000","0.0","0.000000","None","0.000000"
"Estimated_MP","118558798780","118558798780","LinkedLineItem","3000000000298639920","2015/05/01 00:00:00","2015/05/31 23:59:59","2015/06/01 01:37:21","Basheer Mohammad","Basheer Mohammad","TechChefs Software Pvt. Ltd., #62  4th Floor  The High Street , 11th Main Road  Jayanagar 4th Block Bangalore, Karnataka, 560011, IN",,"AmazonSNS","Amazon Simple Notification Service","Amazon Internet Services Pvt Ltd","Requests-Tier1",,"5261123","First 1,000,000 Amazon SNS API Requests per month are free","2015/05/21 10:13:41","2015/05/31 23:59:59","1.0","0.0","USD","0.000000","0.0","0.000000","None","0.000000"
"Estimated_MP","118558798780","118558798780","LinkedLineItem","3000000000293637570","2015/05/01 00:00:00","2015/05/31 23:59:59","2015/06/01 01:37:21","Basheer Mohammad","Basheer Mohammad","TechChefs Software Pvt. Ltd., #62  4th Floor  The High Street , 11th Main Road  Jayanagar 4th Block Bangalore, Karnataka, 560011, IN",,"AWSDataTransfer","AWS Data Transfer","Amazon Internet Services Pvt Ltd","USW2-EUC1-AWS-Out-Bytes",,"4670589","$0.000 per GB - data transfer out under the monthly global free tier","2015/05/21 10:11:45","2015/05/31 23:59:59","4.0E-8","0.0","USD","0.000000","0.0","0.000000","None","0.000000"
"Estimated_MP","118558798780","118558798780","LinkedLineItem","3000000000293863735","2015/05/01 00:00:00","2015/05/31 23:59:59","2015/06/01 01:37:21","Basheer Mohammad","Basheer Mohammad","TechChefs Software Pvt. Ltd., #62  4th Floor  The High Street , 11th Main Road  Jayanagar 4th Block Bangalore, Karnataka, 560011, IN",,"AmazonS3","Amazon Simple Storage Service","Amazon Internet Services Pvt Ltd","USW2-Requests-Tier1",,"4669368","$0.005 per 1,000 PUT, COPY, POST, or LIST requests","2015/05/21 10:13:42","2015/05/31 23:59:59","3101.0","0.0000023283","USD","0.007220","0.0","0.000000","None","0.007220"
"Estimated_MP","118558798780","118558798780","LinkedLineItem","3000000000293637572","2015/05/01 00:00:00","2015/05/31 23:59:59","2015/06/01 01:37:21","Basheer Mohammad","Basheer Mohammad","TechChefs Software Pvt. Ltd., #62  4th Floor  The High Street , 11th Main Road  Jayanagar 4th Block Bangalore, Karnataka, 560011, IN",,"AWSDataTransfer","AWS Data Transfer","Amazon Internet Services Pvt Ltd","USE1-USW2-AWS-In-Bytes",,"4670567","$0.00 per GB - US East (Northern Virginia) data transfer from US West (Oregon)","2015/05/21 10:11:45","2015/05/31 23:59:59","1.4E-7","0.0","USD","0.000000","0.0","0.000000","None","0.000000"
"Estimated_MP","118558798780","118558798780","LinkedLineItem","3000000000293637574","2015/05/01 00:00:00","2015/05/31 23:59:59","2015/06/01 01:37:21","Basheer Mohammad","Basheer Mohammad","TechChefs Software Pvt. Ltd., #62  4th Floor  The High Street , 11th Main Road  Jayanagar 4th Block Bangalore, Karnataka, 560011, IN",,"AWSDataTransfer","AWS Data Transfer","Amazon Internet Services Pvt Ltd","USW2-APS1-AWS-In-Bytes",,"4670278","$0.00 per GB - US West (Oregon) data transfer from Asia Pacific (Singapore)","2015/05/21 10:11:45","2015/05/31 23:59:59","0.00183099","0.0","USD","0.000000","0.0","0.000000","None","0.000000"
"Estimated_MP","118558798780","118558798780","LinkedLineItem","3000000000293637575","2015/05/01 00:00:00","2015/05/31 23:59:59","2015/06/01 01:37:21","Basheer Mohammad","Basheer Mohammad","TechChefs Software Pvt. Ltd., #62  4th Floor  The High Street , 11th Main Road  Jayanagar 4th Block Bangalore, Karnataka, 560011, IN",,"AmazonS3","Amazon Simple Storage Service","Amazon Internet Services Pvt Ltd","Requests-Tier2",,"4669500","$0.00 per request - GET and all other requests under the monthly global free tier","2015/05/21 10:13:42","2015/05/31 23:59:59","12.0","0.0","USD","0.000000","0.0","0.000000","None","0.000000"
"Estimated_MP","118558798780","118558798780","LinkedLineItem","3000000000298639921","2015/05/01 00:00:00","2015/05/31 23:59:59","2015/06/01 01:37:21","Basheer Mohammad","Basheer Mohammad","TechChefs Software Pvt. Ltd., #62  4th Floor  The High Street , 11th Main Road  Jayanagar 4th Block Bangalore, Karnataka, 560011, IN",,"AmazonCognitoSync","Amazon Cognito","Amazon Internet Services Pvt Ltd","CognitoSyncOperation","CognitoSync","4639546","Cognito Sync operation free tier","2015/05/21 10:11:51","2015/05/31 23:59:59","2.0","0.0","USD","0.000000","0.0","0.000000","None","0.000000"
"Estimated_MP","118558798780","118558798780","LinkedLineItem","3000000000293637576","2015/05/01 00:00:00","2015/05/31 23:59:59","2015/06/01 01:37:21","Basheer Mohammad","Basheer Mohammad","TechChefs Software Pvt. Ltd., #62  4th Floor  The High Street , 11th Main Road  Jayanagar 4th Block Bangalore, Karnataka, 560011, IN",,"AWSDataTransfer","AWS Data Transfer","Amazon Internet Services Pvt Ltd","USW2-SAE1-AWS-In-Bytes",,"4670266","$0.00 per GB - US West (Oregon) data transfer from South America (Sao Paulo)","2015/05/21 10:11:45","2015/05/31 23:59:59","0.00183609","0.0","USD","0.000000","0.0","0.000000","None","0.000000"
"Estimated_MP","118558798780","118558798780","LinkedLineItem","3000000000293637577","2015/05/01 00:00:00","2015/05/31 23:59:59","2015/06/01 01:37:21","Basheer Mohammad","Basheer Mohammad","TechChefs Software Pvt. Ltd., #62  4th Floor  The High Street , 11th Main Road  Jayanagar 4th Block Bangalore, Karnataka, 560011, IN",,"AWSDataTransfer","AWS Data Transfer","Amazon Internet Services Pvt Ltd","USW2-SAE1-AWS-Out-Bytes",,"4670395","$0.000 per GB - data transfer out under the monthly global free tier","2015/05/21 10:11:45","2015/05/31 23:59:59","0.00197286","0.0","USD","0.000000","0.0","0.000000","None","0.000000"
"Estimated_MP","118558798780","","CBRounding","CBRounding:Estimated_MP","2015/05/01 00:00:00","2015/05/31 23:59:59","2015/06/01 01:37:21","Basheer Mohammad","","TechChefs Software Pvt. Ltd., #62  4th Floor  The High Street , 11th Main Road  Jayanagar 4th Block Bangalore, Karnataka, 560011, IN",,,,,,,,"There is a USD 0.002780 difference between the sum of all linked account totals and your invoice total.",,,,,"USD","0.002780",,,,"0.002780"
"Estimated_MP","118558798780","","InvoiceTotal","InvoiceTotal:Estimated_MP","2015/05/01 00:00:00","2015/05/31 23:59:59","2015/06/01 01:37:21","Basheer Mohammad","","TechChefs Software Pvt. Ltd., #62  4th Floor  The High Street , 11th Main Road  Jayanagar 4th Block Bangalore, Karnataka, 560011, IN",,,,,,,,"Total amount for invoice Estimated_MP",,,,,"USD","0.01","0.0","0.000000",,"0.01"
,"118558798780","118558798780","AccountTotal","AccountTotal:118558798780","2015/05/01 00:00:00","2015/05/31 23:59:59",,"Basheer Mohammad","Basheer Mohammad",,,,,,,,,"Total for linked account# 118558798780 (Basheer Mohammad)",,,,,"USD","0.007220","0.0","0.000000",,"0.007220"
,"118558798780",,"StatementTotal","StatementTotal","2015/05/01 00:00:00","2015/05/31 23:59:59",,"Basheer Mohammad",,,,,,,,,,"Total statement amount for period 2015/05/01 00:00:00 - 2015/05/31 23:59:59",,,,,"USD","0.01","0.0","0.000000",,"0.01"
,,,"EstimatedDisclaimer",,,,,,,,,,,,,,,"This report reflects your estimated monthly bill for activity through approximately 2015/05/31 19:37:21",,,,,,,,,,
